VMTIA.4R2.B.B2
VMANC.5R4.C.B2
VAMEL.4R5.D.B2
VMABC.4L2.B.B2
VTAXNB.4L1.B2
VTAXNA.4R1.B2
TCSG.5R3.B.B2
TCSG.5L3.B.B2
TCSG.5L3.D.B2
TCSG.4L3.B.B2
TCLA.5L3.B.B2
VTAXNB.4L5.B2
VTAXNA.4R5.B2
VMSDQ.4R6.B.B2
VMZAK.4R6.D.B2
VMAAB.6R2.J.B2
TCSP.4L6.B.B2
